…
    ## Parsed with column specification:
    ## cols(
    ##   id = col_character(),
    ##   `Geographic Area Name` = col_character(),
    ##   `Estimate!!Total` = col_double(),
    ##   `Margin of Error!!Total` = col_character()
    ## )

``` r
df_pop
```

    ## # A tibble: 3,221 x 4
    ##    id            `Geographic Area Name`  `Estimate!!Tota… `Margin of Error!!Tot…
    ##    <chr>         <chr>                              <dbl> <chr>                 
    ##  1 0500000US010… Autauga County, Alabama            55200 *****                 
    ##  2 0500000US010… Baldwin County, Alabama           208107 *****                 
    ##  3 0500000US010… Barbour County, Alabama            25782 *****                 
    ##  4 0500000US010… Bibb County, Alabama               22527 *****                 
    ##  5 0500000US010… Blount County, Alabama             57645 *****                 
    ##  6 0500000US010… Bullock County, Alabama            10352 *****                 
    ##  7 0500000US010… Butler County, Alabama             20025 *****                 
    ##  8 0500000US010… Calhoun County, Alabama           115098 *****                 
    ##  9 0500000US010… Chambers County, Alaba…            33826 *****                 
    ## 10 0500000US010… Cherokee County, Alaba…            25853 *****                 
    ## # … with 3,211 more rows
…
