…
``` r
df_pol_sorted <- df_pol %>%
  mutate(fips_code = paste0(0,fips_code)) %>%
  separate(fips_code, into = c("zeros","fips_code"), sep = -5) %>%
  select(fips_code, total_2016, dem_2016, gop_2016, oth_2016) %>%
  arrange(fips_code)
df_pol_sorted
```

    ## # A tibble: 3,112 x 5
    ##    fips_code total_2016 dem_2016 gop_2016 oth_2016
    ##    <chr>          <dbl>    <dbl>    <dbl>    <dbl>
    ##  1 01001          24661     5908    18110      643
    ##  2 01003          94090    18409    72780     2901
    ##  3 01005          10390     4848     5431      111
    ##  4 01007           8748     1874     6733      141
    ##  5 01009          25384     2150    22808      426
    ##  6 01011           4701     3530     1139       32
    ##  7 01013           8685     3716     4891       78
    ##  8 01015          47376    13197    32803     1376
    ##  9 01017          13778     5763     7803      212
    ## 10 01019          10503     1524     8809      170
    ## # ... with 3,102 more rows
…
``` r
df_pop_sorted <- df_pop %>%
  separate(col = id, into = c("id_firstpart", "fips"), sep = -5) %>%
  select('fips', 'Geographic Area Name', 'Estimate!!Total') %>%
  rename("population" = "Estimate!!Total")
df_pop_sorted
```

    ## # A tibble: 3,220 x 3
    ##    fips  `Geographic Area Name`   population
    ##    <chr> <chr>                         <dbl>
    ##  1 01001 Autauga County, Alabama       55200
    ##  2 01003 Baldwin County, Alabama      208107
    ##  3 01005 Barbour County, Alabama       25782
    ##  4 01007 Bibb County, Alabama          22527
    ##  5 01009 Blount County, Alabama        57645
    ##  6 01011 Bullock County, Alabama       10352
    ##  7 01013 Butler County, Alabama        20025
    ##  8 01015 Calhoun County, Alabama      115098
    ##  9 01017 Chambers County, Alabama      33826
    ## 10 01019 Cherokee County, Alabama      25853
    ## # ... with 3,210 more rows

``` r
df_joined <- df_covid %>%
  left_join(df_pop_sorted, by = "fips") %>%
  left_join(df_pol_sorted, by = c("fips" = "fips_code")) %>%
  select(date, fips, county, state, population, cases, deaths, total_2016, dem_2016, gop_2016, oth_2016 )
df_joined
```

    ## # A tibble: 664,147 x 11
    ##    date       fips  county state population cases deaths total_2016 dem_2016
    ##    <date>     <chr> <chr>  <chr>      <dbl> <dbl>  <dbl>      <dbl>    <dbl>
    ##  1 2020-01-21 53061 Snoho~ Wash~     786620     1      0     305281   165740
    ##  2 2020-01-22 53061 Snoho~ Wash~     786620     1      0     305281   165740
    ##  3 2020-01-23 53061 Snoho~ Wash~     786620     1      0     305281   165740
    ##  4 2020-01-24 17031 Cook   Illi~    5223719     1      0    2055215  1528582
    ##  5 2020-01-24 53061 Snoho~ Wash~     786620     1      0     305281   165740
    ##  6 2020-01-25 06059 Orange Cali~    3164182     1      0     830206   413982
    ##  7 2020-01-25 17031 Cook   Illi~    5223719     1      0    2055215  1528582
    ##  8 2020-01-25 53061 Snoho~ Wash~     786620     1      0     305281   165740
    ##  9 2020-01-26 04013 Maric~ Ariz~    4253913     1      0    1201934   549040
    ## 10 2020-01-26 06037 Los A~ Cali~   10098052     1      0    2314275  1654626
    ## # ... with 664,137 more rows, and 2 more variables: gop_2016 <dbl>,
    ## #   oth_2016 <dbl>
…
    cases_per100k = cases / population * 100000,
    deaths_per100k = deaths / population * 100000
    ) %>%
  mutate(
    per_dem = dem_2016/total_2016*100,
    per_gop = gop_2016/total_2016*100,
    per_oth = oth_2016/total_2016*100,
    per_vote = total_2016/population*100
    ) %>%
  mutate(county_party = if_else(per_gop >= per_dem, "R", "D")) %>%
  drop_na()
df_normalized
```

    ## # A tibble: 638,683 x 18
    ##    date       fips  county state population cases deaths total_2016 dem_2016
    ##    <date>     <chr> <chr>  <chr>      <dbl> <dbl>  <dbl>      <dbl>    <dbl>
    ##  1 2020-01-21 53061 Snoho~ Wash~     786620     1      0     305281   165740
    ##  2 2020-01-22 53061 Snoho~ Wash~     786620     1      0     305281   165740
    ##  3 2020-01-23 53061 Snoho~ Wash~     786620     1      0     305281   165740
    ##  4 2020-01-24 17031 Cook   Illi~    5223719     1      0    2055215  1528582
    ##  5 2020-01-24 53061 Snoho~ Wash~     786620     1      0     305281   165740
    ##  6 2020-01-25 06059 Orange Cali~    3164182     1      0     830206   413982
    ##  7 2020-01-25 17031 Cook   Illi~    5223719     1      0    2055215  1528582
    ##  8 2020-01-25 53061 Snoho~ Wash~     786620     1      0     305281   165740
    ##  9 2020-01-26 04013 Maric~ Ariz~    4253913     1      0    1201934   549040
    ## 10 2020-01-26 06037 Los A~ Cali~   10098052     1      0    2314275  1654626
    ## # ... with 638,673 more rows, and 9 more variables: gop_2016 <dbl>,
    ## #   oth_2016 <dbl>, cases_per100k <dbl>, deaths_per100k <dbl>, per_dem <dbl>,
    ## #   per_gop <dbl>, per_oth <dbl>, per_vote <dbl>, county_party <chr>
…
    ## `summarise()` regrouping output by 'state' (override with `.groups` argument)

``` r
  # mutate(state_party_fine = fct_relevel(state_party_fine, "SD", "D", "R", "SR")) %>%
  # pull(state_party_fine) %>%
  # levels()

 df_state_party
```

    ## # A tibble: 50 x 3
    ## # Groups:   state [50]
    ##    state                state_party state_party_fine
    ##    <chr>                <chr>       <fct>           
    ##  1 Alabama              R           SR              
    ##  2 Arizona              R           R               
    ##  3 Arkansas             R           SR              
    ##  4 California           D           SD              
    ##  5 Colorado             D           D               
    ##  6 Connecticut          D           D               
    ##  7 Delaware             D           D               
    ##  8 District of Columbia D           SD              
    ##  9 Florida              R           R               
    ## 10 Georgia              R           R               
    ## # ... with 40 more rows

``` r
df_norm_state <-
  df_normalized %>%
  left_join(df_state_party, by = "state")
df_norm_state
```

    ## # A tibble: 638,683 x 20
    ##    date       fips  county state population cases deaths total_2016 dem_2016
    ##    <date>     <chr> <chr>  <chr>      <dbl> <dbl>  <dbl>      <dbl>    <dbl>
    ##  1 2020-01-21 53061 Snoho~ Wash~     786620     1      0     305281   165740
    ##  2 2020-01-22 53061 Snoho~ Wash~     786620     1      0     305281   165740
    ##  3 2020-01-23 53061 Snoho~ Wash~     786620     1      0     305281   165740
    ##  4 2020-01-24 17031 Cook   Illi~    5223719     1      0    2055215  1528582
    ##  5 2020-01-24 53061 Snoho~ Wash~     786620     1      0     305281   165740
    ##  6 2020-01-25 06059 Orange Cali~    3164182     1      0     830206   413982
    ##  7 2020-01-25 17031 Cook   Illi~    5223719     1      0    2055215  1528582
    ##  8 2020-01-25 53061 Snoho~ Wash~     786620     1      0     305281   165740
    ##  9 2020-01-26 04013 Maric~ Ariz~    4253913     1      0    1201934   549040
    ## 10 2020-01-26 06037 Los A~ Cali~   10098052     1      0    2314275  1654626
    ## # ... with 638,673 more rows, and 11 more variables: gop_2016 <dbl>,
    ## #   oth_2016 <dbl>, cases_per100k <dbl>, deaths_per100k <dbl>, per_dem <dbl>,
    ## #   per_gop <dbl>, per_oth <dbl>, per_vote <dbl>, county_party <chr>,
    ## #   state_party <chr>, state_party_fine <fct>

``` r
df_normalized_slim <-
  df_norm_state %>%
  select(date, fips, county, state, population, cases, deaths, cases_per100k, deaths_per100k, county_party, state_party, state_party_fine)
df_normalized_slim
```

    ## # A tibble: 638,683 x 12
    ##    date       fips  county state population cases deaths cases_per100k
    ##    <date>     <chr> <chr>  <chr>      <dbl> <dbl>  <dbl>         <dbl>
    ##  1 2020-01-21 53061 Snoho~ Wash~     786620     1      0       0.127  
    ##  2 2020-01-22 53061 Snoho~ Wash~     786620     1      0       0.127  
    ##  3 2020-01-23 53061 Snoho~ Wash~     786620     1      0       0.127  
    ##  4 2020-01-24 17031 Cook   Illi~    5223719     1      0       0.0191 
    ##  5 2020-01-24 53061 Snoho~ Wash~     786620     1      0       0.127  
    ##  6 2020-01-25 06059 Orange Cali~    3164182     1      0       0.0316 
    ##  7 2020-01-25 17031 Cook   Illi~    5223719     1      0       0.0191 
    ##  8 2020-01-25 53061 Snoho~ Wash~     786620     1      0       0.127  
    ##  9 2020-01-26 04013 Maric~ Ariz~    4253913     1      0       0.0235 
    ## 10 2020-01-26 06037 Los A~ Cali~   10098052     1      0       0.00990
    ## # ... with 638,673 more rows, and 4 more variables: deaths_per100k <dbl>,
    ## #   county_party <chr>, state_party <chr>, state_party_fine <fct>
…
df_new_cases
```

    ## # A tibble: 638,683 x 20
    ## # Groups:   fips [3,104]
    ##    date       fips  county state population cases deaths cases_per100k
    ##    <date>     <chr> <chr>  <chr>      <dbl> <dbl>  <dbl>         <dbl>
    ##  1 2020-01-21 53061 Snoho~ Wash~     786620     1      0       0.127  
    ##  2 2020-01-22 53061 Snoho~ Wash~     786620     1      0       0.127  
    ##  3 2020-01-23 53061 Snoho~ Wash~     786620     1      0       0.127  
    ##  4 2020-01-24 17031 Cook   Illi~    5223719     1      0       0.0191 
    ##  5 2020-01-24 53061 Snoho~ Wash~     786620     1      0       0.127  
    ##  6 2020-01-25 06059 Orange Cali~    3164182     1      0       0.0316 
    ##  7 2020-01-25 17031 Cook   Illi~    5223719     1      0       0.0191 
    ##  8 2020-01-25 53061 Snoho~ Wash~     786620     1      0       0.127  
    ##  9 2020-01-26 04013 Maric~ Ariz~    4253913     1      0       0.0235 
    ## 10 2020-01-26 06037 Los A~ Cali~   10098052     1      0       0.00990
    ## # ... with 638,673 more rows, and 12 more variables: deaths_per100k <dbl>,
    ## #   county_party <chr>, state_party <chr>, state_party_fine <fct>,
    ## #   new_cases <dbl>, new_cases_per100k <dbl>, new_deaths <dbl>,
    ## #   new_deaths_per100k <dbl>, roll7 <dbl>, roll7_deaths <dbl>,
    ## #   roll7_per100k <dbl>, roll7_deaths_per100k <dbl>
…
